<?xml version="1.0" encoding="UTF-8"?>
<session version="1.0">
<refactoring comment="Copy package &apos;entities&apos; to &apos;predicate/src&apos;&#x0D;&#x0A;- Original project: &apos;comparator&apos;&#x0D;&#x0A;- Destination element: &apos;predicate/src&apos;&#x0D;&#x0A;- Original element: &apos;comparator/src/entities&apos;" description="Copy package" destination="=predicate/src" element1="/src&lt;entities" flags="589830" fragments="1" id="org.eclipse.jdt.ui.copy" policy="org.eclipse.jdt.ui.copyPackages" stamp="1631817947834" version="1.0"/>
</session>